%YAML 1.1
%TAG !u! tag:unity3d.com,2011:
--- !u!29 &1
OcclusionCullingSettings:
  m_ObjectHideFlags: 0
  serializedVersion: 2
  m_OcclusionBakeSettings:
    smallestOccluder: 5
    smallestHole: 0.25
    backfaceThreshold: 100
  m_SceneGUID: 00000000000000000000000000000000
  m_OcclusionCullingData: {fileID: 0}
--- !u!104 &2
RenderSettings:
  m_ObjectHideFlags: 0
  serializedVersion: 9
  m_Fog: 0
  m_FogColor: {r: 0.5, g: 0.5, b: 0.5, a: 1}
  m_FogMode: 3
  m_FogDensity: 0.01
  m_LinearFogStart: 0
  m_LinearFogEnd: 300
  m_AmbientSkyColor: {r: 0.89546293, g: 0.8855969, b: 0.9264706, a: 1}
  m_AmbientEquatorColor: {r: 0.9440162, g: 0.9117647, b: 1, a: 1}
  m_AmbientGroundColor: {r: 0.7373949, g: 0.700692, b: 0.7941176, a: 1}
  m_AmbientIntensity: 1
  m_AmbientMode: 1
  m_SubtractiveShadowColor: {r: 0.42, g: 0.478, b: 0.627, a: 1}
  m_SkyboxMaterial: {fileID: 10304, guid: 0000000000000000f000000000000000, type: 0}
  m_HaloStrength: 0.5
  m_FlareStrength: 1
  m_FlareFadeSpeed: 3
  m_HaloTexture: {fileID: 0}
  m_SpotCookie: {fileID: 10001, guid: 0000000000000000e000000000000000, type: 0}
  m_DefaultReflectionMode: 0
  m_DefaultReflectionResolution: 128
  m_ReflectionBounces: 1
  m_ReflectionIntensity: 1
  m_CustomReflection: {fileID: 0}
  m_Sun: {fileID: 0}
  m_IndirectSpecularColor: {r: 0, g: 0, b: 0, a: 1}
  m_UseRadianceAmbientProbe: 0
--- !u!157 &3
LightmapSettings:
  m_ObjectHideFlags: 0
  serializedVersion: 12
  m_GIWorkflowMode: 0
  m_GISettings:
    serializedVersion: 2
    m_BounceScale: 1
    m_IndirectOutputScale: 1
    m_AlbedoBoost: 1
    m_EnvironmentLightingMode: 0
    m_EnableBakedLightmaps: 1
    m_EnableRealtimeLightmaps: 1
  m_LightmapEditorSettings:
    serializedVersion: 12
    m_Resolution: 2
    m_BakeResolution: 40
    m_AtlasSize: 1024
    m_AO: 0
    m_AOMaxDistance: 1
    m_CompAOExponent: 1
    m_CompAOExponentDirect: 0
    m_ExtractAmbientOcclusion: 0
    m_Padding: 2
    m_LightmapParameters: {fileID: 0}
    m_LightmapsBakeMode: 1
    m_TextureCompression: 1
    m_FinalGather: 0
    m_FinalGatherFiltering: 1
    m_FinalGatherRayCount: 256
    m_ReflectionCompression: 2
    m_MixedBakeMode: 1
    m_BakeBackend: 0
    m_PVRSampling: 1
    m_PVRDirectSampleCount: 32
    m_PVRSampleCount: 512
    m_PVRBounces: 2
    m_PVREnvironmentSampleCount: 512
    m_PVREnvironmentReferencePointCount: 2048
    m_PVRFilteringMode: 0
    m_PVRDenoiserTypeDirect: 0
    m_PVRDenoiserTypeIndirect: 0
    m_PVRDenoiserTypeAO: 0
    m_PVRFilterTypeDirect: 0
    m_PVRFilterTypeIndirect: 0
    m_PVRFilterTypeAO: 0
    m_PVREnvironmentMIS: 0
    m_PVRCulling: 1
    m_PVRFilteringGaussRadiusDirect: 1
    m_PVRFilteringGaussRadiusIndirect: 5
    m_PVRFilteringGaussRadiusAO: 2
    m_PVRFilteringAtrousPositionSigmaDirect: 0.5
    m_PVRFilteringAtrousPositionSigmaIndirect: 2
    m_PVRFilteringAtrousPositionSigmaAO: 1
    m_ExportTrainingData: 0
    m_TrainingDataDestination: TrainingData
    m_LightProbeSampleCountMultiplier: 4
  m_LightingDataAsset: {fileID: 0}
  m_LightingSettings: {fileID: 4890085278179872738, guid: 87f9f70d9ca0cd74db0b9bae0cdebb35, type: 2}
--- !u!196 &4
NavMeshSettings:
  serializedVersion: 2
  m_ObjectHideFlags: 0
  m_BuildSettings:
    serializedVersion: 2
    agentTypeID: 0
    agentRadius: 0.5
    agentHeight: 2
    agentSlope: 45
    agentClimb: 0.4
    ledgeDropHeight: 0
    maxJumpAcrossDistance: 0
    minRegionArea: 2
    manualCellSize: 0
    cellSize: 0.16666667
    manualTileSize: 0
    tileSize: 256
    accuratePlacement: 0
    maxJobWorkers: 0
    preserveTilesOutsideBounds: 0
    debug:
      m_Flags: 0
  m_NavMeshData: {fileID: 0}
--- !u!1001 &64644811
PrefabInstance:
  m_ObjectHideFlags: 0
  serializedVersion: 2
  m_Modification:
    m_TransformParent: {fileID: 0}
    m_Modifications:
    - target: {fileID: 1652611883545950, guid: 22d077e581c82c34ab3e4454eda84bba, type: 3}
      propertyPath: m_Name
      value: Clumb_1 (1)
      objectReference: {fileID: 0}
    - target: {fileID: 4223501818466712, guid: 22d077e581c82c34ab3e4454eda84bba, type: 3}
      propertyPath: m_LocalScale.x
      value: 0.8
      objectReference: {fileID: 0}
    - target: {fileID: 4223501818466712, guid: 22d077e581c82c34ab3e4454eda84bba, type: 3}
      propertyPath: m_LocalScale.y
      value: 0.8
      objectReference: {fileID: 0}
    - target: {fileID: 4223501818466712, guid: 22d077e581c82c34ab3e4454eda84bba, type: 3}
      propertyPath: m_LocalScale.z
      value: 0.8
      objectReference: {fileID: 0}
    - target: {fileID: 4223501818466712, guid: 22d077e581c82c34ab3e4454eda84bba, type: 3}
      propertyPath: m_LocalRotation.w
      value: 0.9546926
      objectReference: {fileID: 0}
    - target: {fileID: 4223501818466712, guid: 22d077e581c82c34ab3e4454eda84bba, type: 3}
      propertyPath: m_LocalRotation.y
      value: 0.2975937
      objectReference: {fileID: 0}
    - target: {fileID: 4223501818466712, guid: 22d077e581c82c34ab3e4454eda84bba, type: 3}
      propertyPath: m_LocalEulerAnglesHint.y
      value: 34.626003
      objectReference: {fileID: 0}
    - target: {fileID: 4891161152760760, guid: 22d077e581c82c34ab3e4454eda84bba, type: 3}
      propertyPath: m_RootOrder
      value: 5
      objectReference: {fileID: 0}
    - target: {fileID: 4891161152760760, guid: 22d077e581c82c34ab3e4454eda84bba, type: 3}
      propertyPath: m_LocalPosition.x
      value: 6.25
      objectReference: {fileID: 0}
    - target: {fileID: 4891161152760760, guid: 22d077e581c82c34ab3e4454eda84bba, type: 3}
      propertyPath: m_LocalPosition.y
      value: 0
      objectReference: {fileID: 0}
    - target: {fileID: 4891161152760760, guid: 22d077e581c82c34ab3e4454eda84bba, type: 3}
      propertyPath: m_LocalPosition.z
      value: -2.25
      objectReference: {fileID: 0}
    - target: {fileID: 4891161152760760, guid: 22d077e581c82c34ab3e4454eda84bba, type: 3}
      propertyPath: m_LocalRotation.w
      value: 0.8660259
      objectReference: {fileID: 0}
    - target: {fileID: 4891161152760760, guid: 22d077e581c82c34ab3e4454eda84bba, type: 3}
      propertyPath: m_LocalRotation.x
      value: -0
      objectReference: {fileID: 0}
    - target: {fileID: 4891161152760760, guid: 22d077e581c82c34ab3e4454eda84bba, type: 3}
      propertyPath: m_LocalRotation.y
      value: 0.49999917
      objectReference: {fileID: 0}
    - target: {fileID: 4891161152760760, guid: 22d077e581c82c34ab3e4454eda84bba, type: 3}
      propertyPath: m_LocalRotation.z
      value: -0
      objectReference: {fileID: 0}
    m_RemovedComponents: []
  m_SourcePrefab: {fileID: 100100000, guid: 22d077e581c82c34ab3e4454eda84bba, type: 3}
--- !u!1 &591681323
GameObject:
  m_ObjectHideFlags: 0
  m_CorrespondingSourceObject: {fileID: 0}
  m_PrefabInstance: {fileID: 0}
  m_PrefabAsset: {fileID: 0}
  serializedVersion: 6
  m_Component:
  - component: {fileID: 591681329}
  - component: {fileID: 591681328}
  - component: {fileID: 591681326}
  - component: {fileID: 591681325}
  - component: {fileID: 591681324}
  m_Layer: 0
  m_Name: Main Camera (1)
  m_TagString: MainCamera
  m_Icon: {fileID: 0}
  m_NavMeshLayer: 0
  m_StaticEditorFlags: 0
  m_IsActive: 1
--- !u!114 &591681324
MonoBehaviour:
  m_ObjectHideFlags: 0
  m_CorrespondingSourceObject: {fileID: 0}
  m_PrefabInstance: {fileID: 0}
  m_PrefabAsset: {fileID: 0}
  m_GameObject: {fileID: 591681323}
  m_Enabled: 1
  m_EditorHideFlags: 0
  m_Script: {fileID: 11500000, guid: 17126454ab792a64b842a962414425aa, type: 3}
  m_Name: 
  m_EditorClassIdentifier: 
  vaoShader: {fileID: 4800000, guid: a4f77b340a2d3a74da1952209a2e7951, type: 3}
  Radius: 1.47
  Power: 0.41
  Presence: 1
  Quality: 32
  OutputAOOnly: 0
  BlurMode: 2
  EnhancedBlurSize: 5
  EnhancedBlurDeviation: 3
  ColorBleedSelfOcclusionFixLevel: 2
  AdaptiveType: 1
  AdaptiveQualityCoefficient: 1
  DoomMode: 2
  IsLumaSensitive: 0
  LumaTreshold: 0.7
  LumaKneeLinearity: 3
  LumaKneeWidth: 0.3
  Mode: 2
  LuminanceMode: 1
  ColorTint:
    r: 0.42647058
    g: 0.3135813
    b: 0.3135813
    a: 1
  ColorBleedPower: 5
  ColorBleedQuality: 2
  GiBackfaces: 0
  Downsampling: 1
  CommandBufferEnabled: 0
  UseGBuffer: 0
  ForcedSwitchPerformed: 0
  CameraEvent: 12
--- !u!81 &591681325
AudioListener:
  m_ObjectHideFlags: 0
  m_CorrespondingSourceObject: {fileID: 0}
  m_PrefabInstance: {fileID: 0}
  m_PrefabAsset: {fileID: 0}
  m_GameObject: {fileID: 591681323}
  m_Enabled: 1
--- !u!124 &591681326
Behaviour:
  m_ObjectHideFlags: 0
  m_CorrespondingSourceObject: {fileID: 0}
  m_PrefabInstance: {fileID: 0}
  m_PrefabAsset: {fileID: 0}
  m_GameObject: {fileID: 591681323}
  m_Enabled: 1
--- !u!20 &591681328
Camera:
  m_ObjectHideFlags: 0
  m_CorrespondingSourceObject: {fileID: 0}
  m_PrefabInstance: {fileID: 0}
  m_PrefabAsset: {fileID: 0}
  m_GameObject: {fileID: 591681323}
  m_Enabled: 1
  serializedVersion: 2
  m_ClearFlags: 2
  m_BackGroundColor: {r: 0.41689906, g: 0.3998162, b: 0.625, a: 0}
  m_projectionMatrixMode: 1
  m_GateFitMode: 2
  m_FOVAxisMode: 0
  m_SensorSize: {x: 36, y: 24}
  m_LensShift: {x: 0, y: 0}
  m_FocalLength: 50
  m_NormalizedViewPortRect:
    serializedVersion: 2
    x: 0
    y: 0
    width: 1
    height: 1
  near clip plane: 0.3
  far clip plane: 1000
  field of view: 45
  orthographic: 0
  orthographic size: 5
  m_Depth: -1
  m_CullingMask:
    serializedVersion: 2
    m_Bits: 4294967295
  m_RenderingPath: -1
  m_TargetTexture: {fileID: 0}
  m_TargetDisplay: 0
  m_TargetEye: 3
  m_HDR: 0
  m_AllowMSAA: 1
  m_AllowDynamicResolution: 0
  m_ForceIntoRT: 0
  m_OcclusionCulling: 1
  m_StereoConvergence: 10
  m_StereoSeparation: 0.022
--- !u!4 &591681329
Transform:
  m_ObjectHideFlags: 0
  m_CorrespondingSourceObject: {fileID: 0}
  m_PrefabInstance: {fileID: 0}
  m_PrefabAsset: {fileID: 0}
  m_GameObject: {fileID: 591681323}
  m_LocalRotation: {x: 0.007934016, y: -0.9393837, z: 0.038901478, w: 0.3405614}
  m_LocalPosition: {x: 14.16, y: 6.64, z: 17.21}
  m_LocalScale: {x: 1, y: 1, z: 1}
  m_ConstrainProportionsScale: 0
  m_Children: []
  m_Father: {fileID: 0}
  m_RootOrder: 1
  m_LocalEulerAnglesHint: {x: 4.5020003, y: -140.119, z: 0.666}
--- !u!1001 &1029497971
PrefabInstance:
  m_ObjectHideFlags: 0
  serializedVersion: 2
  m_Modification:
    m_TransformParent: {fileID: 0}
    m_Modifications:
    - target: {fileID: 4088108402764450, guid: 66b0275cee2373c448373f0fdbbce7c5, type: 3}
      propertyPath: m_RootOrder
      value: 9
      objectReference: {fileID: 0}
    - target: {fileID: 4088108402764450, guid: 66b0275cee2373c448373f0fdbbce7c5, type: 3}
      propertyPath: m_LocalPosition.x
      value: 0
      objectReference: {fileID: 0}
    - target: {fileID: 4088108402764450, guid: 66b0275cee2373c448373f0fdbbce7c5, type: 3}
      propertyPath: m_LocalPosition.y
      value: 0
      objectReference: {fileID: 0}
    - target: {fileID: 4088108402764450, guid: 66b0275cee2373c448373f0fdbbce7c5, type: 3}
      propertyPath: m_LocalPosition.z
      value: 0
      objectReference: {fileID: 0}
    - target: {fileID: 4088108402764450, guid: 66b0275cee2373c448373f0fdbbce7c5, type: 3}
      propertyPath: m_LocalRotation.w
      value: 1
      objectReference: {fileID: 0}
    - target: {fileID: 4088108402764450, guid: 66b0275cee2373c448373f0fdbbce7c5, type: 3}
      propertyPath: m_LocalRotation.x
      value: 0
      objectReference: {fileID: 0}
    - target: {fileID: 4088108402764450, guid: 66b0275cee2373c448373f0fdbbce7c5, type: 3}
      propertyPath: m_LocalRotation.y
      value: 0
      objectReference: {fileID: 0}
    - target: {fileID: 4088108402764450, guid: 66b0275cee2373c448373f0fdbbce7c5, type: 3}
      propertyPath: m_LocalRotation.z
      value: 0
      objectReference: {fileID: 0}
    m_RemovedComponents: []
  m_SourcePrefab: {fileID: 100100000, guid: 66b0275cee2373c448373f0fdbbce7c5, type: 3}
--- !u!1001 &1134013383
PrefabInstance:
  m_ObjectHideFlags: 0
  serializedVersion: 2
  m_Modification:
    m_TransformParent: {fileID: 0}
    m_Modifications:
    - target: {fileID: 4743037738411342, guid: 827f8802f3a27a840bf3aa710689b953, type: 3}
      propertyPath: m_RootOrder
      value: 8
      objectReference: {fileID: 0}
    - target: {fileID: 4743037738411342, guid: 827f8802f3a27a840bf3aa710689b953, type: 3}
      propertyPath: m_LocalPosition.x
      value: 0
      objectReference: {fileID: 0}
    - target: {fileID: 4743037738411342, guid: 827f8802f3a27a840bf3aa710689b953, type: 3}
      propertyPath: m_LocalPosition.y
      value: 0
      objectReference: {fileID: 0}
    - target: {fileID: 4743037738411342, guid: 827f8802f3a27a840bf3aa710689b953, type: 3}
      propertyPath: m_LocalPosition.z
      value: 0
      objectReference: {fileID: 0}
    - target: {fileID: 4743037738411342, guid: 827f8802f3a27a840bf3aa710689b953, type: 3}
      propertyPath: m_LocalRotation.w
      value: 0.70710784
      objectReference: {fileID: 0}
    - target: {fileID: 4743037738411342, guid: 827f8802f3a27a840bf3aa710689b953, type: 3}
      propertyPath: m_LocalRotation.x
      value: -0
      objectReference: {fileID: 0}
    - target: {fileID: 4743037738411342, guid: 827f8802f3a27a840bf3aa710689b953, type: 3}
      propertyPath: m_LocalRotation.y
      value: -0.70710576
      objectReference: {fileID: 0}
    - target: {fileID: 4743037738411342, guid: 827f8802f3a27a840bf3aa710689b953, type: 3}
      propertyPath: m_LocalRotation.z
      value: -0
      objectReference: {fileID: 0}
    m_RemovedComponents: []
  m_SourcePrefab: {fileID: 100100000, guid: 827f8802f3a27a840bf3aa710689b953, type: 3}
--- !u!1001 &1201333434
PrefabInstance:
  m_ObjectHideFlags: 0
  serializedVersion: 2
  m_Modification:
    m_TransformParent: {fileID: 0}
    m_Modifications:
    - target: {fileID: 4891161152760760, guid: 22d077e581c82c34ab3e4454eda84bba, type: 3}
      propertyPath: m_RootOrder
      value: 3
      objectReference: {fileID: 0}
    - target: {fileID: 4891161152760760, guid: 22d077e581c82c34ab3e4454eda84bba, type: 3}
      propertyPath: m_LocalPosition.x
      value: 6.25
      objectReference: {fileID: 0}
    - target: {fileID: 4891161152760760, guid: 22d077e581c82c34ab3e4454eda84bba, type: 3}
      propertyPath: m_LocalPosition.y
      value: 0
      objectReference: {fileID: 0}
    - target: {fileID: 4891161152760760, guid: 22d077e581c82c34ab3e4454eda84bba, type: 3}
      propertyPath: m_LocalPosition.z
      value: 2.75
      objectReference: {fileID: 0}
    - target: {fileID: 4891161152760760, guid: 22d077e581c82c34ab3e4454eda84bba, type: 3}
      propertyPath: m_LocalRotation.w
      value: 0.8660259
      objectReference: {fileID: 0}
    - target: {fileID: 4891161152760760, guid: 22d077e581c82c34ab3e4454eda84bba, type: 3}
      propertyPath: m_LocalRotation.x
      value: -0
      objectReference: {fileID: 0}
    - target: {fileID: 4891161152760760, guid: 22d077e581c82c34ab3e4454eda84bba, type: 3}
      propertyPath: m_LocalRotation.y
      value: 0.49999917
      objectReference: {fileID: 0}
    - target: {fileID: 4891161152760760, guid: 22d077e581c82c34ab3e4454eda84bba, type: 3}
      propertyPath: m_LocalRotation.z
      value: -0
      objectReference: {fileID: 0}
    m_RemovedComponents: []
  m_SourcePrefab: {fileID: 100100000, guid: 22d077e581c82c34ab3e4454eda84bba, type: 3}
--- !u!1 &1263627397
GameObject:
  m_ObjectHideFlags: 0
  m_CorrespondingSourceObject: {fileID: 0}
  m_PrefabInstance: {fileID: 0}
  m_PrefabAsset: {fileID: 0}
  serializedVersion: 6
  m_Component:
  - component: {fileID: 1263627399}
  - component: {fileID: 1263627398}
  m_Layer: 0
  m_Name: Directional Light (1)
  m_TagString: Untagged
  m_Icon: {fileID: 0}
  m_NavMeshLayer: 0
  m_StaticEditorFlags: 0
  m_IsActive: 1
--- !u!108 &1263627398
Light:
  m_ObjectHideFlags: 0
  m_CorrespondingSourceObject: {fileID: 0}
  m_PrefabInstance: {fileID: 0}
  m_PrefabAsset: {fileID: 0}
  m_GameObject: {fileID: 1263627397}
  m_Enabled: 1
  serializedVersion: 10
  m_Type: 1
  m_Shape: 0
  m_Color: {r: 0.66176474, g: 1, b: 0.9720081, a: 1}
  m_Intensity: 0.06
  m_Range: 10
  m_SpotAngle: 30
  m_InnerSpotAngle: 21.80208
  m_CookieSize: 10
  m_Shadows:
    m_Type: 0
    m_Resolution: -1
    m_CustomResolution: -1
    m_Strength: 1
    m_Bias: 0.05
    m_NormalBias: 0.4
    m_NearPlane: 0.2
    m_CullingMatrixOverride:
      e00: 1
      e01: 0
      e02: 0
      e03: 0
      e10: 0
      e11: 1
      e12: 0
      e13: 0
      e20: 0
      e21: 0
      e22: 1
      e23: 0
      e30: 0
      e31: 0
      e32: 0
      e33: 1
    m_UseCullingMatrixOverride: 0
  m_Cookie: {fileID: 0}
  m_DrawHalo: 0
  m_Flare: {fileID: 0}
  m_RenderMode: 0
  m_CullingMask:
    serializedVersion: 2
    m_Bits: 4294967295
  m_RenderingLayerMask: 1
  m_Lightmapping: 4
  m_LightShadowCasterMode: 0
  m_AreaSize: {x: 1, y: 1}
  m_BounceIntensity: 1
  m_ColorTemperature: 6570
  m_UseColorTemperature: 0
  m_BoundingSphereOverride: {x: 0, y: 0, z: 0, w: 0}
  m_UseBoundingSphereOverride: 0
  m_UseViewFrustumForShadowCasterCull: 1
  m_ShadowRadius: 0
  m_ShadowAngle: 0
--- !u!4 &1263627399
Transform:
  m_ObjectHideFlags: 0
  m_CorrespondingSourceObject: {fileID: 0}
  m_PrefabInstance: {fileID: 0}
  m_PrefabAsset: {fileID: 0}
  m_GameObject: {fileID: 1263627397}
  m_LocalRotation: {x: -0.06243056, y: 0.9739591, z: -0.058308244, w: -0.2100149}
  m_LocalPosition: {x: 0, y: 9.88, z: 20}
  m_LocalScale: {x: 1, y: 1, z: 1}
  m_ConstrainProportionsScale: 0
  m_Children: []
  m_Father: {fileID: 0}
  m_RootOrder: 10
  m_LocalEulerAnglesHint: {x: 8.036, y: 203.941, z: -5.629}
--- !u!1001 &1281278569
PrefabInstance:
  m_ObjectHideFlags: 0
  serializedVersion: 2
  m_Modification:
    m_TransformParent: {fileID: 0}
    m_Modifications:
    - target: {fileID: 1652611883545950, guid: 22d077e581c82c34ab3e4454eda84bba, type: 3}
      propertyPath: m_Name
      value: Clumb_1 (3)
      objectReference: {fileID: 0}
    - target: {fileID: 4223501818466712, guid: 22d077e581c82c34ab3e4454eda84bba, type: 3}
      propertyPath: m_LocalScale.x
      value: 0.96299994
      objectReference: {fileID: 0}
    - target: {fileID: 4223501818466712, guid: 22d077e581c82c34ab3e4454eda84bba, type: 3}
      propertyPath: m_LocalScale.y
      value: 0.9630001
      objectReference: {fileID: 0}
    - target: {fileID: 4223501818466712, guid: 22d077e581c82c34ab3e4454eda84bba, type: 3}
      propertyPath: m_LocalScale.z
      value: 0.9630001
      objectReference: {fileID: 0}
    - target: {fileID: 4891161152760760, guid: 22d077e581c82c34ab3e4454eda84bba, type: 3}
      propertyPath: m_RootOrder
      value: 7
      objectReference: {fileID: 0}
    - target: {fileID: 4891161152760760, guid: 22d077e581c82c34ab3e4454eda84bba, type: 3}
      propertyPath: m_LocalScale.x
      value: 0.8256602
      objectReference: {fileID: 0}
    - target: {fileID: 4891161152760760, guid: 22d077e581c82c34ab3e4454eda84bba, type: 3}
      propertyPath: m_LocalScale.y
      value: 0.82566017
      objectReference: {fileID: 0}
    - target: {fileID: 4891161152760760, guid: 22d077e581c82c34ab3e4454eda84bba, type: 3}
      propertyPath: m_LocalScale.z
      value: 0.82566017
      objectReference: {fileID: 0}
    - target: {fileID: 4891161152760760, guid: 22d077e581c82c34ab3e4454eda84bba, type: 3}
      propertyPath: m_LocalPosition.x
      value: -6.25
      objectReference: {fileID: 0}
    - target: {fileID: 4891161152760760, guid: 22d077e581c82c34ab3e4454eda84bba, type: 3}
      propertyPath: m_LocalPosition.y
      value: 0
      objectReference: {fileID: 0}
    - target: {fileID: 4891161152760760, guid: 22d077e581c82c34ab3e4454eda84bba, type: 3}
      propertyPath: m_LocalPosition.z
      value: 2.75
      objectReference: {fileID: 0}
    - target: {fileID: 4891161152760760, guid: 22d077e581c82c34ab3e4454eda84bba, type: 3}
      propertyPath: m_LocalRotation.w
      value: 0.77009153
      objectReference: {fileID: 0}
    - target: {fileID: 4891161152760760, guid: 22d077e581c82c34ab3e4454eda84bba, type: 3}
      propertyPath: m_LocalRotation.x
      value: -0
      objectReference: {fileID: 0}
    - target: {fileID: 4891161152760760, guid: 22d077e581c82c34ab3e4454eda84bba, type: 3}
      propertyPath: m_LocalRotation.y
      value: -0.6379335
      objectReference: {fileID: 0}
    - target: {fileID: 4891161152760760, guid: 22d077e581c82c34ab3e4454eda84bba, type: 3}
      propertyPath: m_LocalRotation.z
      value: -0
      objectReference: {fileID: 0}
    - target: {fileID: 4891161152760760, guid: 22d077e581c82c34ab3e4454eda84bba, type: 3}
      propertyPath: m_LocalEulerAnglesHint.y
      value: -79.276
      objectReference: {fileID: 0}
    m_RemovedComponents: []
  m_SourcePrefab: {fileID: 100100000, guid: 22d077e581c82c34ab3e4454eda84bba, type: 3}
--- !u!1001 &1509916411
PrefabInstance:
  m_ObjectHideFlags: 0
  serializedVersion: 2
  m_Modification:
    m_TransformParent: {fileID: 0}
    m_Modifications:
    - target: {fileID: 1652611883545950, guid: 22d077e581c82c34ab3e4454eda84bba, type: 3}
      propertyPath: m_Name
      value: Clumb_1 (2)
      objectReference: {fileID: 0}
    - target: {fileID: 4223501818466712, guid: 22d077e581c82c34ab3e4454eda84bba, type: 3}
      propertyPath: m_LocalScale.x
      value: 0.8
      objectReference: {fileID: 0}
    - target: {fileID: 4223501818466712, guid: 22d077e581c82c34ab3e4454eda84bba, type: 3}
      propertyPath: m_LocalScale.y
      value: 0.8
      objectReference: {fileID: 0}
    - target: {fileID: 4223501818466712, guid: 22d077e581c82c34ab3e4454eda84bba, type: 3}
      propertyPath: m_LocalScale.z
      value: 0.8
      objectReference: {fileID: 0}
    - target: {fileID: 4223501818466712, guid: 22d077e581c82c34ab3e4454eda84bba, type: 3}
      propertyPath: m_LocalRotation.w
      value: 0.9546926
      objectReference: {fileID: 0}
    - target: {fileID: 4223501818466712, guid: 22d077e581c82c34ab3e4454eda84bba, type: 3}
      propertyPath: m_LocalRotation.y
      value: 0.2975937
      objectReference: {fileID: 0}
    - target: {fileID: 4223501818466712, guid: 22d077e581c82c34ab3e4454eda84bba, type: 3}
      propertyPath: m_LocalEulerAnglesHint.y
      value: 34.626003
      objectReference: {fileID: 0}
    - target: {fileID: 4891161152760760, guid: 22d077e581c82c34ab3e4454eda84bba, type: 3}
      propertyPath: m_RootOrder
      value: 6
      objectReference: {fileID: 0}
    - target: {fileID: 4891161152760760, guid: 22d077e581c82c34ab3e4454eda84bba, type: 3}
      propertyPath: m_LocalScale.x
      value: 1.1569706
      objectReference: {fileID: 0}
    - target: {fileID: 4891161152760760, guid: 22d077e581c82c34ab3e4454eda84bba, type: 3}
      propertyPath: m_LocalScale.y
      value: 1.1569705
      objectReference: {fileID: 0}
    - target: {fileID: 4891161152760760, guid: 22d077e581c82c34ab3e4454eda84bba, type: 3}
      propertyPath: m_LocalScale.z
      value: 1.1569705
      objectReference: {fileID: 0}
    - target: {fileID: 4891161152760760, guid: 22d077e581c82c34ab3e4454eda84bba, type: 3}
      propertyPath: m_LocalPosition.x
      value: -6.25
      objectReference: {fileID: 0}
    - target: {fileID: 4891161152760760, guid: 22d077e581c82c34ab3e4454eda84bba, type: 3}
      propertyPath: m_LocalPosition.y
      value: 0
      objectReference: {fileID: 0}
    - target: {fileID: 4891161152760760, guid: 22d077e581c82c34ab3e4454eda84bba, type: 3}
      propertyPath: m_LocalPosition.z
      value: -2.25
      objectReference: {fileID: 0}
    - target: {fileID: 4891161152760760, guid: 22d077e581c82c34ab3e4454eda84bba, type: 3}
      propertyPath: m_LocalRotation.w
      value: 0.48192987
      objectReference: {fileID: 0}
    - target: {fileID: 4891161152760760, guid: 22d077e581c82c34ab3e4454eda84bba, type: 3}
      propertyPath: m_LocalRotation.x
      value: -0
      objectReference: {fileID: 0}
    - target: {fileID: 4891161152760760, guid: 22d077e581c82c34ab3e4454eda84bba, type: 3}
      propertyPath: m_LocalRotation.y
      value: -0.8762098
      objectReference: {fileID: 0}
    - target: {fileID: 4891161152760760, guid: 22d077e581c82c34ab3e4454eda84bba, type: 3}
      propertyPath: m_LocalRotation.z
      value: -0
      objectReference: {fileID: 0}
    - target: {fileID: 4891161152760760, guid: 22d077e581c82c34ab3e4454eda84bba, type: 3}
      propertyPath: m_LocalEulerAnglesHint.y
      value: -122.37701
      objectReference: {fileID: 0}
    m_RemovedComponents: []
  m_SourcePrefab: {fileID: 100100000, guid: 22d077e581c82c34ab3e4454eda84bba, type: 3}
--- !u!1 &1522773576
GameObject:
  m_ObjectHideFlags: 0
  m_CorrespondingSourceObject: {fileID: 0}
  m_PrefabInstance: {fileID: 0}
  m_PrefabAsset: {fileID: 0}
  serializedVersion: 6
  m_Component:
  - component: {fileID: 1522773578}
  - component: {fileID: 1522773577}
  m_Layer: 0
  m_Name: Directional Light
  m_TagString: Untagged
  m_Icon: {fileID: 0}
  m_NavMeshLayer: 0
  m_StaticEditorFlags: 0
  m_IsActive: 1
--- !u!108 &1522773577
Light:
  m_ObjectHideFlags: 0
  m_CorrespondingSourceObject: {fileID: 0}
  m_PrefabInstance: {fileID: 0}
  m_PrefabAsset: {fileID: 0}
  m_GameObject: {fileID: 1522773576}
  m_Enabled: 1
  serializedVersion: 10
  m_Type: 1
  m_Shape: 0
  m_Color: {r: 0.82791436, g: 0.78719723, b: 0.9558824, a: 1}
  m_Intensity: 0.7
  m_Range: 10
  m_SpotAngle: 30
  m_InnerSpotAngle: 21.80208
  m_CookieSize: 10
  m_Shadows:
    m_Type: 2
    m_Resolution: -1
    m_CustomResolution: -1
    m_Strength: 1
    m_Bias: 0.05
    m_NormalBias: 0.4
    m_NearPlane: 0.2
    m_CullingMatrixOverride:
      e00: 1
      e01: 0
      e02: 0
      e03: 0
      e10: 0
      e11: 1
      e12: 0
      e13: 0
      e20: 0
      e21: 0
      e22: 1
      e23: 0
      e30: 0
      e31: 0
      e32: 0
      e33: 1
    m_UseCullingMatrixOverride: 0
  m_Cookie: {fileID: 0}
  m_DrawHalo: 0
  m_Flare: {fileID: 0}
  m_RenderMode: 0
  m_CullingMask:
    serializedVersion: 2
    m_Bits: 4294967295
  m_RenderingLayerMask: 1
  m_Lightmapping: 4
  m_LightShadowCasterMode: 0
  m_AreaSize: {x: 1, y: 1}
  m_BounceIntensity: 1
  m_ColorTemperature: 6570
  m_UseColorTemperature: 0
  m_BoundingSphereOverride: {x: 0, y: 0, z: 0, w: 0}
  m_UseBoundingSphereOverride: 0
  m_UseViewFrustumForShadowCasterCull: 1
  m_ShadowRadius: 0
  m_ShadowAngle: 0
--- !u!4 &1522773578
Transform:
  m_ObjectHideFlags: 0
  m_CorrespondingSourceObject: {fileID: 0}
  m_PrefabInstance: {fileID: 0}
  m_PrefabAsset: {fileID: 0}
  m_GameObject: {fileID: 1522773576}
  m_LocalRotation: {x: -0.24902554, y: 0.6008671, z: -0.20455185, w: -0.7315077}
  m_LocalPosition: {x: 0, y: 14, z: 20}
  m_LocalScale: {x: 1, y: 1, z: 1}
  m_ConstrainProportionsScale: 0
  m_Children: []
  m_Father: {fileID: 0}
  m_RootOrder: 2
  m_LocalEulerAnglesHint: {x: 37.6, y: 281.2, z: 0}
--- !u!1 &1846977218
GameObject:
  m_ObjectHideFlags: 0
  m_CorrespondingSourceObject: {fileID: 0}
  m_PrefabInstance: {fileID: 0}
  m_PrefabAsset: {fileID: 0}
  serializedVersion: 6
  m_Component:
  - component: {fileID: 1846977223}
  - component: {fileID: 1846977222}
  - component: {fileID: 1846977220}
  - component: {fileID: 1846977219}
  - component: {fileID: 1846977224}
  m_Layer: 0
  m_Name: Main Camera
  m_TagString: MainCamera
  m_Icon: {fileID: 0}
  m_NavMeshLayer: 0
  m_StaticEditorFlags: 0
  m_IsActive: 0
--- !u!81 &1846977219
AudioListener:
  m_ObjectHideFlags: 0
  m_CorrespondingSourceObject: {fileID: 0}
  m_PrefabInstance: {fileID: 0}
  m_PrefabAsset: {fileID: 0}
  m_GameObject: {fileID: 1846977218}
  m_Enabled: 1
--- !u!124 &1846977220
Behaviour:
  m_ObjectHideFlags: 0
  m_CorrespondingSourceObject: {fileID: 0}
  m_PrefabInstance: {fileID: 0}
  m_PrefabAsset: {fileID: 0}
  m_GameObject: {fileID: 1846977218}
  m_Enabled: 1
--- !u!20 &1846977222
Camera:
  m_ObjectHideFlags: 0
  m_CorrespondingSourceObject: {fileID: 0}
  m_PrefabInstance: {fileID: 0}
  m_PrefabAsset: {fileID: 0}
  m_GameObject: {fileID: 1846977218}
  m_Enabled: 1
  serializedVersion: 2
  m_ClearFlags: 2
  m_BackGroundColor: {r: 0.41689906, g: 0.3998162, b: 0.625, a: 0}
  m_projectionMatrixMode: 1
  m_GateFitMode: 2
  m_FOVAxisMode: 0
  m_SensorSize: {x: 36, y: 24}
  m_LensShift: {x: 0, y: 0}
  m_FocalLength: 50
  m_NormalizedViewPortRect:
    serializedVersion: 2
    x: 0
    y: 0
    width: 1
    height: 1
  near clip plane: 0.3
  far clip plane: 1000
  field of view: 45
  orthographic: 0
  orthographic size: 5
  m_Depth: -1
  m_CullingMask:
    serializedVersion: 2
    m_Bits: 4294967295
  m_RenderingPath: -1
  m_TargetTexture: {fileID: 0}
  m_TargetDisplay: 0
  m_TargetEye: 3
  m_HDR: 0
  m_AllowMSAA: 1
  m_AllowDynamicResolution: 0
  m_ForceIntoRT: 0
  m_OcclusionCulling: 1
  m_StereoConvergence: 10
  m_StereoSeparation: 0.022
--- !u!4 &1846977223
Transform:
  m_ObjectHideFlags: 0
  m_CorrespondingSourceObject: {fileID: 0}
  m_PrefabInstance: {fileID: 0}
  m_PrefabAsset: {fileID: 0}
  m_GameObject: {fileID: 1846977218}
  m_LocalRotation: {x: 0.053958055, y: -0.9423905, z: 0.17841165, w: 0.2777733}
  m_LocalPosition: {x: 11.7, y: 13.87, z: 20}
  m_LocalScale: {x: 1, y: 1, z: 1}
  m_ConstrainProportionsScale: 0
  m_Children: []
  m_Father: {fileID: 0}
  m_RootOrder: 0
  m_LocalEulerAnglesHint: {x: 21.484001, y: -147.184, z: -0.15900001}
--- !u!114 &1846977224
MonoBehaviour:
  m_ObjectHideFlags: 0
  m_CorrespondingSourceObject: {fileID: 0}
  m_PrefabInstance: {fileID: 0}
  m_PrefabAsset: {fileID: 0}
  m_GameObject: {fileID: 1846977218}
  m_Enabled: 1
  m_EditorHideFlags: 0
  m_Script: {fileID: 11500000, guid: 17126454ab792a64b842a962414425aa, type: 3}
  m_Name: 
  m_EditorClassIdentifier: 
  vaoShader: {fileID: 4800000, guid: a4f77b340a2d3a74da1952209a2e7951, type: 3}
  Radius: 1.47
  Power: 0.41
  Presence: 0.9
  Quality: 32
  OutputAOOnly: 0
  BlurMode: 2
  EnhancedBlurSize: 7
  EnhancedBlurDeviation: 3
  ColorBleedSelfOcclusionFixLevel: 2
  AdaptiveType: 1
  AdaptiveQualityCoefficient: 1
  DoomMode: 2
  IsLumaSensitive: 0
  LumaTreshold: 0.7
  LumaKneeLinearity: 3
  LumaKneeWidth: 0.3
  Mode: 2
  LuminanceMode: 1
  ColorTint:
    r: 0.42647058
    g: 0.3135813
    b: 0.3135813
    a: 1
  ColorBleedPower: 5
  ColorBleedQuality: 2
  GiBackfaces: 0
  Downsampling: 1
  CommandBufferEnabled: 0
  UseGBuffer: 0
  ForcedSwitchPerformed: 0
  CameraEvent: 12
--- !u!1001 &2112695524
PrefabInstance:
  m_ObjectHideFlags: 0
  serializedVersion: 2
  m_Modification:
    m_TransformParent: {fileID: 0}
    m_Modifications:
    - target: {fileID: 4923675184754070, guid: 912275f92af0eae43987638e709f2a77, type: 3}
      propertyPath: m_RootOrder
      value: 4
      objectReference: {fileID: 0}
    - target: {fileID: 4923675184754070, guid: 912275f92af0eae43987638e709f2a77, type: 3}
      propertyPath: m_LocalPosition.x
      value: 0
      objectReference: {fileID: 0}
    - target: {fileID: 4923675184754070, guid: 912275f92af0eae43987638e709f2a77, type: 3}
      propertyPath: m_LocalPosition.y
      value: 0.06
      objectReference: {fileID: 0}
    - target: {fileID: 4923675184754070, guid: 912275f92af0eae43987638e709f2a77, type: 3}
      propertyPath: m_LocalPosition.z
      value: 0
      objectReference: {fileID: 0}
    - target: {fileID: 4923675184754070, guid: 912275f92af0eae43987638e709f2a77, type: 3}
      propertyPath: m_LocalRotation.w
      value: -1
      objectReference: {fileID: 0}
    - target: {fileID: 4923675184754070, guid: 912275f92af0eae43987638e709f2a77, type: 3}
      propertyPath: m_LocalRotation.x
      value: -0
      objectReference: {fileID: 0}
    - target: {fileID: 4923675184754070, guid: 912275f92af0eae43987638e709f2a77, type: 3}
      propertyPath: m_LocalRotation.y
      value: -0.0000059604645
      objectReference: {fileID: 0}
    - target: {fileID: 4923675184754070, guid: 912275f92af0eae43987638e709f2a77, type: 3}
      propertyPath: m_LocalRotation.z
      value: -0
      objectReference: {fileID: 0}
    m_RemovedComponents: []
  m_SourcePrefab: {fileID: 100100000, guid: 912275f92af0eae43987638e709f2a77, type: 3}
