Library\Bee\artifacts\mvdfrm\UnityEditor.UI.ref.dll_4C98D3F7040CD4F5.mvfrm
Library\Bee\artifacts\mvdfrm\UnityEngine.UI.ref.dll_08FEAA520A2EFD60.mvfrm
Library\Bee\artifacts\mvdfrm\Unity.Burst.Cecil.dll_616C375E15FF8552.mvfrm
Library\Bee\artifacts\mvdfrm\Unity.Burst.Cecil.Mdb.dll_70CFAF9E36A88D0F.mvfrm
Library\Bee\artifacts\mvdfrm\Unity.Burst.Cecil.Pdb.dll_8822280DB55D8E92.mvfrm
Library\Bee\artifacts\mvdfrm\Unity.Burst.Cecil.Rocks.dll_515640F75FE974F2.mvfrm
Library\Bee\artifacts\mvdfrm\Unity.Burst.Unsafe.dll_6F257996ADD6B5A1.mvfrm
Library\Bee\artifacts\mvdfrm\Unity.Plastic.Antlr3.Runtime.dll_D4DB5200D62FE25E.mvfrm
Library\Bee\artifacts\mvdfrm\Unity.Plastic.Newtonsoft.Json.dll_629472608A94ADF7.mvfrm
Library\Bee\artifacts\mvdfrm\Unity.VisualScripting.IonicZip.dll_C74A53921D7D6E52.mvfrm
Library\Bee\artifacts\mvdfrm\Unity.VisualScripting.YamlDotNet.dll_50ABF58A2D5EA9CA.mvfrm
Library\Bee\artifacts\mvdfrm\Unity.VisualScripting.TextureAssets.dll_E7CA1EDDEE2C07C2.mvfrm
Library\Bee\artifacts\mvdfrm\Unity.VisualScripting.Antlr3.Runtime.dll_02191C6B5E27B9E9.mvfrm
Library\Bee\artifacts\mvdfrm\UnityEditor.Graphs.dll_06C74539F0B1466B.mvfrm
Library\Bee\artifacts\mvdfrm\UnityEditor.CoreModule.dll_48C77AAC091F3539.mvfrm
Library\Bee\artifacts\mvdfrm\UnityEditor.DeviceSimulatorModule.dll_748EA145FC4A4CD8.mvfrm
Library\Bee\artifacts\mvdfrm\UnityEditor.DiagnosticsModule.dll_B93E2F6465778926.mvfrm
Library\Bee\artifacts\mvdfrm\UnityEditor.dll_1A93D5FC40310F0C.mvfrm
Library\Bee\artifacts\mvdfrm\UnityEditor.GraphViewModule.dll_5D110E8B67C8043D.mvfrm
Library\Bee\artifacts\mvdfrm\UnityEditor.PackageManagerUIModule.dll_69356821EC1E2555.mvfrm
Library\Bee\artifacts\mvdfrm\UnityEditor.QuickSearchModule.dll_444DB071BE4E857F.mvfrm
Library\Bee\artifacts\mvdfrm\UnityEditor.SceneTemplateModule.dll_3054463DDC75F9E0.mvfrm
Library\Bee\artifacts\mvdfrm\UnityEditor.TextCoreFontEngineModule.dll_630B86290947F297.mvfrm
Library\Bee\artifacts\mvdfrm\UnityEditor.TextCoreTextEngineModule.dll_AAF3BC9A98CBABB5.mvfrm
Library\Bee\artifacts\mvdfrm\UnityEditor.UIBuilderModule.dll_B199BBA7DA807D71.mvfrm
Library\Bee\artifacts\mvdfrm\UnityEditor.UIElementsModule.dll_EA2BBB7CA680A3D5.mvfrm
Library\Bee\artifacts\mvdfrm\UnityEditor.UIElementsSamplesModule.dll_30C5DBAACA76F1E8.mvfrm
Library\Bee\artifacts\mvdfrm\UnityEditor.UIServiceModule.dll_EA8BCD0AC3B7CD8B.mvfrm
Library\Bee\artifacts\mvdfrm\UnityEditor.UnityConnectModule.dll_A43312847C6D806F.mvfrm
Library\Bee\artifacts\mvdfrm\UnityEngine.AccessibilityModule.dll_62F9B1D4DCEC217D.mvfrm
Library\Bee\artifacts\mvdfrm\UnityEngine.AIModule.dll_D1E823FA9CDB166D.mvfrm
Library\Bee\artifacts\mvdfrm\UnityEngine.AndroidJNIModule.dll_6874A44FEFA012AB.mvfrm
Library\Bee\artifacts\mvdfrm\UnityEngine.AnimationModule.dll_2B968AB44224D8E3.mvfrm
Library\Bee\artifacts\mvdfrm\UnityEngine.ARModule.dll_8B5AE8FDF9F87536.mvfrm
Library\Bee\artifacts\mvdfrm\UnityEngine.AssetBundleModule.dll_8836E36320B53A71.mvfrm
Library\Bee\artifacts\mvdfrm\UnityEngine.AudioModule.dll_B76145893D74C915.mvfrm
Library\Bee\artifacts\mvdfrm\UnityEngine.ClothModule.dll_1E49A2841791A7F9.mvfrm
Library\Bee\artifacts\mvdfrm\UnityEngine.ClusterInputModule.dll_23CF879A2DF55335.mvfrm
Library\Bee\artifacts\mvdfrm\UnityEngine.ClusterRendererModule.dll_7A3B63B76C055A5C.mvfrm
Library\Bee\artifacts\mvdfrm\UnityEngine.CoreModule.dll_6BE84DFEB124A064.mvfrm
Library\Bee\artifacts\mvdfrm\UnityEngine.CrashReportingModule.dll_9BF56C5F764D5A7C.mvfrm
Library\Bee\artifacts\mvdfrm\UnityEngine.DirectorModule.dll_A24DFC5DB6A1E781.mvfrm
Library\Bee\artifacts\mvdfrm\UnityEngine.dll_4D381CD49EA49BF1.mvfrm
Library\Bee\artifacts\mvdfrm\UnityEngine.DSPGraphModule.dll_A79F5DC72902B8A2.mvfrm
Library\Bee\artifacts\mvdfrm\UnityEngine.GameCenterModule.dll_92C1EE6AB5E1039C.mvfrm
Library\Bee\artifacts\mvdfrm\UnityEngine.GIModule.dll_6A246D083889FE87.mvfrm
Library\Bee\artifacts\mvdfrm\UnityEngine.GridModule.dll_495969ECC979365B.mvfrm
Library\Bee\artifacts\mvdfrm\UnityEngine.HotReloadModule.dll_ACDF48BA1D57F465.mvfrm
Library\Bee\artifacts\mvdfrm\UnityEngine.ImageConversionModule.dll_E62D6167EE2A1250.mvfrm
Library\Bee\artifacts\mvdfrm\UnityEngine.IMGUIModule.dll_EFC0E4F003A65CF6.mvfrm
Library\Bee\artifacts\mvdfrm\UnityEngine.InputLegacyModule.dll_197BFE81B8A6F062.mvfrm
Library\Bee\artifacts\mvdfrm\UnityEngine.InputModule.dll_1DD70D39B3ACEDB9.mvfrm
Library\Bee\artifacts\mvdfrm\UnityEngine.JSONSerializeModule.dll_C3113B10DC278207.mvfrm
Library\Bee\artifacts\mvdfrm\UnityEngine.LocalizationModule.dll_621C51ECC571462E.mvfrm
Library\Bee\artifacts\mvdfrm\UnityEngine.ParticleSystemModule.dll_EF07B5ABE45EE60A.mvfrm
Library\Bee\artifacts\mvdfrm\UnityEngine.PerformanceReportingModule.dll_8C3EC278D82D9923.mvfrm
Library\Bee\artifacts\mvdfrm\UnityEngine.Physics2DModule.dll_783C7AA4E321D078.mvfrm
Library\Bee\artifacts\mvdfrm\UnityEngine.PhysicsModule.dll_BCAA18B9CB169886.mvfrm
Library\Bee\artifacts\mvdfrm\UnityEngine.ProfilerModule.dll_D49435944FFB6E8E.mvfrm
Library\Bee\artifacts\mvdfrm\UnityEngine.RuntimeInitializeOnLoadManagerInitializerModule.dll_CC53F0CE93EC3141.mvfrm
Library\Bee\artifacts\mvdfrm\UnityEngine.ScreenCaptureModule.dll_DCF8E895F093AE69.mvfrm
Library\Bee\artifacts\mvdfrm\UnityEngine.SharedInternalsModule.dll_6A3EA03D65580DA0.mvfrm
Library\Bee\artifacts\mvdfrm\UnityEngine.SpriteMaskModule.dll_7BEE60FAD7509916.mvfrm
Library\Bee\artifacts\mvdfrm\UnityEngine.SpriteShapeModule.dll_A19810BDD657727B.mvfrm
Library\Bee\artifacts\mvdfrm\UnityEngine.StreamingModule.dll_E02B780491AC9021.mvfrm
Library\Bee\artifacts\mvdfrm\UnityEngine.SubstanceModule.dll_BCD68C4DDCFF8E2F.mvfrm
Library\Bee\artifacts\mvdfrm\UnityEngine.SubsystemsModule.dll_E69BC75CA5988129.mvfrm
Library\Bee\artifacts\mvdfrm\UnityEngine.TerrainModule.dll_D6F09428A0D4E174.mvfrm
Library\Bee\artifacts\mvdfrm\UnityEngine.TerrainPhysicsModule.dll_EF825E7EFDA1E097.mvfrm
Library\Bee\artifacts\mvdfrm\UnityEngine.TextCoreFontEngineModule.dll_E16B017C1C45B162.mvfrm
Library\Bee\artifacts\mvdfrm\UnityEngine.TextCoreTextEngineModule.dll_295337EDABC96A80.mvfrm
Library\Bee\artifacts\mvdfrm\UnityEngine.TextRenderingModule.dll_06385AA0A7CB2E5E.mvfrm
Library\Bee\artifacts\mvdfrm\UnityEngine.TilemapModule.dll_75ECFBA9B891C27D.mvfrm
Library\Bee\artifacts\mvdfrm\UnityEngine.TLSModule.dll_32BEA087690657DA.mvfrm
Library\Bee\artifacts\mvdfrm\UnityEngine.UIElementsModule.dll_EADA28C4A8C4BD20.mvfrm
Library\Bee\artifacts\mvdfrm\UnityEngine.UIElementsNativeModule.dll_B3AF1CB75D969577.mvfrm
Library\Bee\artifacts\mvdfrm\UnityEngine.UIModule.dll_CD5BC227F9221C19.mvfrm
Library\Bee\artifacts\mvdfrm\UnityEngine.UmbraModule.dll_3235F1A1CA9B7488.mvfrm
Library\Bee\artifacts\mvdfrm\UnityEngine.UNETModule.dll_FE8E95E7FE3395DD.mvfrm
Library\Bee\artifacts\mvdfrm\UnityEngine.UnityAnalyticsModule.dll_0EA7267590863806.mvfrm
Library\Bee\artifacts\mvdfrm\UnityEngine.UnityConnectModule.dll_9192969376F5811A.mvfrm
Library\Bee\artifacts\mvdfrm\UnityEngine.UnityCurlModule.dll_5EB32BE5B238CAD0.mvfrm
Library\Bee\artifacts\mvdfrm\UnityEngine.UnityTestProtocolModule.dll_EC88919D2472473E.mvfrm
Library\Bee\artifacts\mvdfrm\UnityEngine.UnityWebRequestAssetBundleModule.dll_6D3095FB2EEDEF57.mvfrm
Library\Bee\artifacts\mvdfrm\UnityEngine.UnityWebRequestAudioModule.dll_043B16575E9863BB.mvfrm
Library\Bee\artifacts\mvdfrm\UnityEngine.UnityWebRequestModule.dll_F7CC6911F91EACCF.mvfrm
Library\Bee\artifacts\mvdfrm\UnityEngine.UnityWebRequestTextureModule.dll_03F4D40F19718EF0.mvfrm
Library\Bee\artifacts\mvdfrm\UnityEngine.UnityWebRequestWWWModule.dll_F4157D499B8926EC.mvfrm
Library\Bee\artifacts\mvdfrm\UnityEngine.VehiclesModule.dll_1A10F5DD30CBB71C.mvfrm
Library\Bee\artifacts\mvdfrm\UnityEngine.VFXModule.dll_B39D38F63F73C147.mvfrm
Library\Bee\artifacts\mvdfrm\UnityEngine.VideoModule.dll_DC6AC9F40006E4BA.mvfrm
Library\Bee\artifacts\mvdfrm\UnityEngine.VirtualTexturingModule.dll_D83BD12636451602.mvfrm
Library\Bee\artifacts\mvdfrm\UnityEngine.VRModule.dll_202DE8AD9ADCA191.mvfrm
Library\Bee\artifacts\mvdfrm\UnityEngine.WindModule.dll_E2372927425B1ECD.mvfrm
Library\Bee\artifacts\mvdfrm\UnityEngine.XRModule.dll_52ECABB22416EEEF.mvfrm
Library\Bee\artifacts\mvdfrm\UnityEditor.WindowsStandalone.Extensions.dll_627EBB9ADA6980F7.mvfrm